Build a model
…
# `predict()`

Use a fitted model to predict new `y` values from data. Returns a tibble.

```r
predict(lm_fit, new_data = penguins) 
```

---

```r
lm_fit %>% 
  predict(new_data = penguins)
> # A tibble: 333 x 1
>    .pred
>    <dbl>
>  1 3206.
>  2 3456.
>  3 3908.
>  4 3807.
>  5 3657.
>  6 3206.
>  7 3908.
>  8 3256.
>  9 3707.
> 10 4058.
> # … with 323 more rows
```
…
---

```r
lm_fit <- 
  lm_spec %>% 
  fit(body_mass_g ~ flipper_length_mm, 
      data = penguins)

peng_pred <- 
  lm_fit %>% 
  predict(new_data = penguins) %>% 
  mutate(truth = penguins$body_mass_g)

peng_pred
> # A tibble: 333 x 2
>    .pred truth
>    <dbl> <dbl>
>  1 3206.  3750
>  2 3456.  3800
>  3 3908.  3250
>  4 3807.  3450
>  5 3657.  3650
>  6 3206.  3625
>  7 3908.  4675
>  8 3256.  3200
>  9 3707.  3800
> 10 4058.  4400
> # … with 323 more rows
```
…
# `training()` and `testing()`

Extract training and testing sets from an rsplit

```r
training(peng_split)
testing(peng_split)
```

---

```r
train_set <- training(peng_split) 
train_set
> # A tibble: 250 x 6
>    species culmen_length_mm culmen_depth_mm flipper_length_…
>    <fct>              <dbl>           <dbl>            <dbl>
>  1 Adelie              40.3            18                195
>  2 Adelie              36.7            19.3              193
>  3 Adelie              39.3            20.6              190
>  4 Adelie              38.9            17.8              181
>  5 Adelie              39.2            19.6              195
>  6 Adelie              41.1            17.6              182
>  7 Adelie              38.6            21.2              191
>  8 Adelie              34.6            21.1              198
>  9 Adelie              36.6            17.8              185
> 10 Adelie              42.5            20.7              197
> # … with 240 more rows, and 2 more variables:
> #   body_mass_g <dbl>, sex <fct>
```
…
