Build A Model
…
# `predict()`

Use a fitted model to predict new `y` values from data. Returns a tibble.

```r
predict(lm_fit, new_data = new_homes) 
```

---

```r
lm_fit %>% 
  predict(new_data = ames)
# # A tibble: 2,930 x 1
#      .pred
#      <dbl>
#  1 198255.
#  2 113367.
#  3 161731.
#  4 248964.
#  5 195239.
#  6 192447.
#  7 162736.
#  8 156258.
#  9 193787.
# 10 214786.
# # … with 2,920 more rows
```
…
---

```r
lm_fit <- 
  lm_spec %>% 
  fit(Sale_Price ~ Gr_Liv_Area, 
      data = ames)

price_pred <- 
  lm_fit %>% 
  predict(new_data = ames) %>% 
  mutate(truth = ames$Sale_Price)

price_pred
# # A tibble: 2,930 x 2
#      .pred  truth
#      <dbl>  <int>
#  1 198255. 215000
#  2 113367. 105000
#  3 161731. 172000
#  4 248964. 244000
#  5 195239. 189900
#  6 192447. 195500
#  7 162736. 213500
#  8 156258. 191500
#  9 193787. 236500
# 10 214786. 189000
# # … with 2,920 more rows
```
…
Extract training and testing sets from an rsplit

```r
training(ames_split)
testing(ames_split)
```

.footnote[`*` from `rsample`]

---

```r
train_set <- training(ames_split) 
train_set
# # A tibble: 2,198 x 74
#    MS_SubClass MS_Zoning Lot_Frontage Lot_Area Street Alley
#    <fct>       <fct>            <dbl>    <int> <fct>  <fct>
#  1 One_Story_… Resident…          141    31770 Pave   No_A…
#  2 One_Story_… Resident…           80    11622 Pave   No_A…
#  3 One_Story_… Resident…           81    14267 Pave   No_A…
#  4 One_Story_… Resident…           93    11160 Pave   No_A…
#  5 Two_Story_… Resident…           74    13830 Pave   No_A…
#  6 Two_Story_… Resident…           78     9978 Pave   No_A…
#  7 One_Story_… Resident…           41     4920 Pave   No_A…
#  8 One_Story_… Resident…           43     5005 Pave   No_A…
#  9 One_Story_… Resident…           39     5389 Pave   No_A…
# 10 Two_Story_… Resident…           60     7500 Pave   No_A…
# # … with 2,188 more rows, and 68 more variables:
# #   Lot_Shape <fct>, Land_Contour <fct>, Utilities <fct>,
# #   Lot_Config <fct>, Land_Slope <fct>, …
```
…
