Resample Models
…
--

.footnote[`TRUE` is actually the default; averages across folds]

---

```r
rt_spec %>% 
  fit_resamples(
    Sale_Price ~ Gr_Liv_Area, 
    resamples = cv_folds
    ) %>% 
  collect_metrics(summarize = FALSE)
# # A tibble: 20 x 4
#    id     .metric .estimator .estimate
#    <chr>  <chr>   <chr>          <dbl>
#  1 Fold01 rmse    standard   60178.   
#  2 Fold01 rsq     standard       0.430
#  3 Fold02 rmse    standard   58111.   
#  4 Fold02 rsq     standard       0.339
#  5 Fold03 rmse    standard   61395.   
#  6 Fold03 rsq     standard       0.426
#  7 Fold04 rmse    standard   54305.   
#  8 Fold04 rsq     standard       0.474
#  9 Fold05 rmse    standard   56699.   
# 10 Fold05 rsq     standard       0.522
# # … with 10 more rows
```
…
