Preprocess Your Data
…
---

# What will this code do?

```r
ames_zsplit <- ames %>% 
  mutate(z_price = 
           (Sale_Price - mean(Sale_Price)) / sd(Sale_Price)) %>% 
  initial_split()
```

--

```
# # A tibble: 2,198 x 2
#    Sale_Price  z_price
#         <int>    <dbl>
#  1     105000 -0.949  
#  2     172000 -0.110  
#  3     244000  0.791  
#  4     213500  0.409  
#  5     191500  0.134  
#  6     236500  0.697  
#  7     189000  0.103  
#  8     175900 -0.0613 
#  9     185000  0.0526 
# 10     180400 -0.00496
# # … with 2,188 more rows
```
…
---
background-image: url(images/pca.003.jpeg)
background-size: contain

---
background-image: url(images/pca.004.jpeg)
background-size: contain

---

```
# # A tibble: 732 x 81
#    MS_SubClass MS_Zoning Lot_Frontage Lot_Area Street Alley
#    <fct>       <fct>            <dbl>    <dbl> <fct>  <fct>
#  1 One_Story_… Resident…      2.48     3.00    Pave   No_A…
#  2 One_Story_… Resident…      0.663    0.217   Pave   No_A…
#  3 One_Story_… Resident…      1.05     0.153   Pave   No_A…
#  4 Two_Story_… Resident…      0.514   -0.00732 Pave   No_A…
#  5 Two_Story_… Resident…     -0.320    6.00    Pave   No_A…
#  6 One_Story_… Resident…      0.901    0.185   Pave   No_A…
#  7 One_Story_… Resident…      0.216   -0.221   Pave   No_A…
#  8 Two_Story_… Resident…     -1.09    -1.16    Pave   No_A…
#  9 Two_Story_… Resident…     -1.72    -0.304   Pave   No_A…
# 10 Two_Story_… Resident…      0.00782  0.927   Pave   No_A…
# # … with 722 more rows, and 75 more variables:
# #   Lot_Shape <fct>, Land_Contour <fct>, Utilities <fct>,
# #   Lot_Config <fct>, Land_Slope <fct>, …
```
…
.right-column[

```
# A tibble: 2,930 x 6
     Hip Gable Mansard Gambrel  Shed  Flat
   <dbl> <dbl>   <dbl>   <dbl> <dbl> <dbl>
 1     1     0       0       0     0     0
 2     0     1       0       0     0     0
 3     1     0       0       0     0     0
 4     1     0       0       0     0     0
 5     0     1       0       0     0     0
 6     0     1       0       0     0     0
 7     0     1       0       0     0     0
 8     0     1       0       0     0     0
 9     0     1       0       0     0     0
10     0     1       0       0     0     0
# … with 2,920 more rows
```
…
---

```r
summary(pca_rec)
# # A tibble: 81 x 4
#    variable     type    role      source  
#    <chr>        <chr>   <chr>     <chr>   
#  1 MS_SubClass  nominal predictor original
#  2 MS_Zoning    nominal predictor original
#  3 Lot_Frontage numeric predictor original
#  4 Lot_Area     numeric predictor original
#  5 Street       nominal predictor original
#  6 Alley        nominal predictor original
#  7 Lot_Shape    nominal predictor original
#  8 Land_Contour nominal predictor original
#  9 Utilities    nominal predictor original
# 10 Lot_Config   nominal predictor original
# # … with 71 more rows
```
…
