Tune Models
…
---

```r
rf_results %>% 
  collect_metrics(summarize = FALSE) 
# # A tibble: 100 x 6
#    id      mtry min_n .metric .estimator .estimate
#    <chr>  <int> <int> <chr>   <chr>          <dbl>
#  1 Fold01    19    15 roc_auc binary         0.709
#  2 Fold01    13     5 roc_auc binary         0.704
#  3 Fold01    12    34 roc_auc binary         0.724
#  4 Fold01    16    31 roc_auc binary         0.715
#  5 Fold01     7    27 roc_auc binary         0.731
#  6 Fold01    21    25 roc_auc binary         0.710
#  7 Fold01     4    38 roc_auc binary         0.738
#  8 Fold01     9    18 roc_auc binary         0.720
#  9 Fold01     2    11 roc_auc binary         0.741
# 10 Fold01    17     7 roc_auc binary         0.698
# # … with 90 more rows
```
…
---
class: middle

.center[
# Final test predictions
]

```r
last_rf_fit %>% 
  collect_predictions()
# # A tibble: 1,398 x 6
#    id    .pred_Remote `.pred_Not remo…  .row .pred_class
#    <chr>        <dbl>            <dbl> <int> <fct>      
#  1 trai…        0.514            0.486     1 Remote     
#  2 trai…        0.393            0.607     6 Not remote 
#  3 trai…        0.232            0.768    18 Not remote 
#  4 trai…        0.606            0.394    23 Remote     
#  5 trai…        0.476            0.524    30 Not remote 
#  6 trai…        0.556            0.444    50 Remote     
#  7 trai…        0.838            0.162    53 Remote     
#  8 trai…        0.404            0.596    56 Not remote 
#  9 trai…        0.578            0.422    63 Remote     
# 10 trai…        0.300            0.700    68 Not remote 
# # … with 1,388 more rows, and 1 more variable: Remote <fct>
```
…
