Build a better training set
…
---
background-image: url(images/pca.003.jpeg)
background-size: contain

---
background-image: url(images/pca.004.jpeg)
background-size: contain

---

```
# # A tibble: 33 x 131
#    ACE_CD143_Angio… ACTH_Adrenocort…    AXL Adiponectin
#               <dbl>            <dbl>  <dbl>       <dbl>
#  1           0.657            -0.254  0.879       0.142
#  2          -1.10             -1.08  -1.36        0.491
#  3           0.515             0.101  0.361      -0.531
#  4          -1.34             -2.48  -0.910      -0.315
#  5           0.860             1.13   1.80        0.167
#  6           0.586             0.101 -0.419      -1.21 
#  7          -1.60              0.101  0.539       0.214
#  8           1.18              0.723  0.539       0.567
#  9           1.75              0.425  0.712      -0.880
# 10           0.0536           -1.32   0.712       0.305
# # … with 23 more rows, and 127 more variables:
# #   Alpha_1_Antichymotrypsin <dbl>,
# #   Alpha_1_Antitrypsin <dbl>, Alpha_1_Microglobulin <dbl>,
# #   Alpha_2_Macroglobulin <dbl>,
# #   Angiopoietin_2_ANG_2 <dbl>, …
```
…
.right-column[

```
# A tibble: 333 x 6
    E3E3  E3E4  E4E4  E2E3  E2E4  E2E2
   <dbl> <dbl> <dbl> <dbl> <dbl> <dbl>
 1     1     0     0     0     0     0
 2     0     1     0     0     0     0
 3     0     1     0     0     0     0
 4     0     1     0     0     0     0
 5     1     0     0     0     0     0
 6     0     0     1     0     0     0
 7     0     0     0     1     0     0
 8     0     0     0     1     0     0
 9     1     0     0     0     0     0
10     0     0     0     1     0     0
# … with 323 more rows
```
…
---

```r
summary(knn_recipe)
# # A tibble: 131 x 4
#    variable                        type    role      source 
#    <chr>                           <chr>   <chr>     <chr>  
#  1 ACE_CD143_Angiotensin_Converti  numeric predictor origin…
#  2 ACTH_Adrenocorticotropic_Hormon numeric predictor origin…
#  3 AXL                             numeric predictor origin…
#  4 Adiponectin                     numeric predictor origin…
#  5 Alpha_1_Antichymotrypsin        numeric predictor origin…
#  6 Alpha_1_Antitrypsin             numeric predictor origin…
#  7 Alpha_1_Microglobulin           numeric predictor origin…
#  8 Alpha_2_Macroglobulin           numeric predictor origin…
#  9 Angiopoietin_2_ANG_2            numeric predictor origin…
# 10 Angiotensinogen                 numeric predictor origin…
# # … with 121 more rows
```
…
