Build a model
…
Extract training and testing sets from an rsplit

```r
training(ames_split)
testing(ames_split)
```

.footnote[`*` from `rsample`]

---

```r
train_set <- training(ames_split) 
train_set
# # A tibble: 2,198 x 81
#    MS_SubClass MS_Zoning Lot_Frontage Lot_Area Street Alley
#    <fct>       <fct>            <dbl>    <int> <fct>  <fct>
#  1 One_Story_… Resident…          141    31770 Pave   No_A…
#  2 One_Story_… Resident…           80    11622 Pave   No_A…
#  3 One_Story_… Resident…           81    14267 Pave   No_A…
#  4 One_Story_… Resident…           93    11160 Pave   No_A…
#  5 Two_Story_… Resident…           74    13830 Pave   No_A…
#  6 Two_Story_… Resident…           78     9978 Pave   No_A…
#  7 One_Story_… Resident…           41     4920 Pave   No_A…
#  8 One_Story_… Resident…           43     5005 Pave   No_A…
#  9 One_Story_… Resident…           39     5389 Pave   No_A…
# 10 Two_Story_… Resident…           60     7500 Pave   No_A…
# # … with 2,188 more rows, and 75 more variables:
# #   Lot_Shape <fct>, Land_Contour <fct>, Utilities <fct>,
# #   Lot_Config <fct>, Land_Slope <fct>, …
```
…
--

.footnote[`TRUE` is actually the default; averages across folds]

---

```r
lr_mod %>% 
  fit_resamples(
    Class ~ tau + VEGF, 
    resamples = alz_folds
    ) %>% 
  collect_metrics(summarize = FALSE)
# # A tibble: 20 x 4
#    id     .metric  .estimator .estimate
#    <chr>  <chr>    <chr>          <dbl>
#  1 Fold01 accuracy binary         0.806
#  2 Fold01 roc_auc  binary         0.859
#  3 Fold02 accuracy binary         0.806
#  4 Fold02 roc_auc  binary         0.793
#  5 Fold03 accuracy binary         0.867
#  6 Fold03 roc_auc  binary         0.932
#  7 Fold04 accuracy binary         0.8  
#  8 Fold04 roc_auc  binary         0.773
#  9 Fold05 accuracy binary         0.933
# 10 Fold05 roc_auc  binary         0.960
# # … with 10 more rows
```
…
