Tune better models
…
---

```r
rf_results %>% 
  collect_metrics(summarize = FALSE) 
# # A tibble: 100 x 7
#    id      mtry min_n .metric .estimator .estimate .config
#    <chr>  <int> <int> <chr>   <chr>          <dbl> <fct>  
#  1 Fold01    53    28 roc_auc binary         0.894 Model01
#  2 Fold01    37    36 roc_auc binary         0.859 Model02
#  3 Fold01    74    21 roc_auc binary         0.914 Model03
#  4 Fold01    10    13 roc_auc binary         0.869 Model04
#  5 Fold01    80     8 roc_auc binary         0.914 Model05
#  6 Fold01   100    31 roc_auc binary         0.919 Model06
#  7 Fold01    16    15 roc_auc binary         0.848 Model07
#  8 Fold01   113     5 roc_auc binary         0.914 Model08
#  9 Fold01   127    38 roc_auc binary         0.909 Model09
# 10 Fold01    43    20 roc_auc binary         0.894 Model10
# # … with 90 more rows
```
…
---
class: middle

.center[
# Final test predictions
]

```r
last_rf_fit %>% 
  collect_predictions()
# # A tibble: 33 x 6
#    id    .pred_Impaired .pred_Control  .row .pred_class
#    <chr>          <dbl>         <dbl> <int> <fct>      
#  1 trai…         0.0908         0.909     4 Control    
#  2 trai…         0.582          0.418     8 Impaired   
#  3 trai…         0.802          0.198    10 Impaired   
#  4 trai…         0.325          0.675    34 Control    
#  5 trai…         0.285          0.715    48 Control    
#  6 trai…         0.0654         0.935    71 Control    
#  7 trai…         0.662          0.338    82 Impaired   
#  8 trai…         0.0143         0.986    83 Control    
#  9 trai…         0.530          0.470    91 Impaired   
# 10 trai…         0.0295         0.970   108 Control    
# # … with 23 more rows, and 1 more variable: Class <fct>
```
…
